src/Mux/transcript
# ** Note: (vsim-220) '/nfs/guille/a2/rh80apps/mentor/questa-2025/questasim/linux_x86_64/../modelsim.ini' is used as the ini file.
# ** Warning: (vsim-8689) Ignoring plusarg '+acc'.  Did you mean '-voptargs=+acc'?
# vsim work.scale_mux_test -coverage "+acc" -c -do "cover.do" 
# Start time: 12:32:54 on Dec 07,2025
# ** Note: (vsim-3813) Design is being optimized due to module recompilation...
# ** Note: (vopt-220) '/nfs/guille/a2/rh80apps/mentor/questa-2025/questasim/linux_x86_64/../modelsim.ini' is used as the ini file.
# ** Warning: (vopt-2009) At least one design unit was compiled with optimization level -O0 or -O1.
# Use vdir -l command to find such design units.
# ** Note: (vsim-12126) Error and warning message counts have been restored: Errors=0, Warnings=2.
# //  Questa Sim-64
# //  Version 2025.2_1 linux_x86_64 Jun 26 2025
# //
# // Unpublished work. Copyright 2025 Siemens
# //
# // This material contains trade secrets or otherwise confidential information
# // owned by Siemens Industry Software Inc. or its affiliates (collectively,
# // "SISW"), or its licensors. Access to and use of this information is strictly
# // limited as set forth in the Customer's applicable agreements with SISW.
# //
# // This material may not be copied, distributed, or otherwise disclosed outside
# // of the Customer's facilities without the express written permission of SISW,
# // and may not be used in any way not expressly authorized by SISW.
# //
# Loading sv_std.std
# Loading work.scale_mux_test(fast)
# Loading work.scale_mux(fast)
# do cover.do
# 0ns in_a=00 in_b=00 sel_a=0 out=00
# 1ns in_a=00 in_b=00 sel_a=1 out=00
# 2ns in_a=00 in_b=ff sel_a=0 out=ff
# 3ns in_a=00 in_b=ff sel_a=1 out=00
# 4ns in_a=ff in_b=00 sel_a=0 out=00
# 5ns in_a=ff in_b=00 sel_a=1 out=ff
# 6ns in_a=ff in_b=ff sel_a=0 out=ff
# 7ns in_a=ff in_b=ff sel_a=1 out=ff
# MUX DETERMINISTIC TEST PASSED
# 8ns in_a=49 in_b=7a sel_a=0 out=7a
# 9ns in_a=da in_b=4e sel_a=0 out=4e
# 10ns in_a=9b in_b=d9 sel_a=0 out=d9
# 11ns in_a=57 in_b=9b sel_a=1 out=57
# 12ns in_a=f3 in_b=46 sel_a=0 out=46
# 13ns in_a=80 in_b=d8 sel_a=0 out=d8
# 14ns in_a=88 in_b=07 sel_a=1 out=88
# 15ns in_a=f3 in_b=50 sel_a=0 out=50
# 16ns in_a=73 in_b=bb sel_a=0 out=bb
# 17ns in_a=ae in_b=cf sel_a=0 out=cf
# 18ns in_a=c7 in_b=37 sel_a=0 out=37
# 19ns in_a=88 in_b=7b sel_a=0 out=7b
# 20ns in_a=0c in_b=ba sel_a=1 out=0c
# 21ns in_a=48 in_b=f9 sel_a=0 out=f9
# 22ns in_a=90 in_b=fd sel_a=1 out=90
# 23ns in_a=6e in_b=b9 sel_a=1 out=6e
# 24ns in_a=4e in_b=6f sel_a=0 out=6f
# 25ns in_a=89 in_b=b5 sel_a=1 out=89
# 26ns in_a=58 in_b=8e sel_a=0 out=8e
# 27ns in_a=89 in_b=ac sel_a=1 out=89
# 28ns in_a=21 in_b=9d sel_a=0 out=9d
# 29ns in_a=a9 in_b=a7 sel_a=1 out=a9
# 30ns in_a=76 in_b=08 sel_a=0 out=08
# 31ns in_a=d9 in_b=5e sel_a=1 out=d9
# 32ns in_a=70 in_b=93 sel_a=0 out=93
# 33ns in_a=cf in_b=04 sel_a=1 out=cf
# 34ns in_a=9d in_b=61 sel_a=1 out=9d
# 35ns in_a=91 in_b=2c sel_a=0 out=2c
# 36ns in_a=99 in_b=01 sel_a=0 out=01
# 37ns in_a=8e in_b=86 sel_a=0 out=86
# 38ns in_a=0b in_b=44 sel_a=0 out=44
# 39ns in_a=1b in_b=27 sel_a=0 out=27
# 40ns in_a=79 in_b=4c sel_a=1 out=79
# 41ns in_a=5d in_b=23 sel_a=1 out=5d
# 42ns in_a=ff in_b=23 sel_a=1 out=ff
# 43ns in_a=bb in_b=30 sel_a=1 out=bb
# 44ns in_a=b4 in_b=31 sel_a=0 out=31
# 45ns in_a=db in_b=e4 sel_a=0 out=e4
# 46ns in_a=e7 in_b=14 sel_a=0 out=14
# 47ns in_a=c6 in_b=2a sel_a=1 out=c6
# 48ns in_a=ef in_b=43 sel_a=0 out=43
# 49ns in_a=21 in_b=c9 sel_a=0 out=c9
# 50ns in_a=9d in_b=c4 sel_a=1 out=9d
# 51ns in_a=22 in_b=88 sel_a=0 out=88
# 52ns in_a=b7 in_b=b8 sel_a=1 out=b7
# 53ns in_a=01 in_b=3d sel_a=0 out=3d
# 54ns in_a=77 in_b=31 sel_a=1 out=77
# 55ns in_a=f4 in_b=03 sel_a=1 out=f4
# 56ns in_a=d1 in_b=a8 sel_a=1 out=d1
# 57ns in_a=56 in_b=8e sel_a=0 out=8e
# 58ns in_a=e1 in_b=21 sel_a=1 out=e1
# 59ns in_a=6b in_b=9a sel_a=0 out=9a
# 60ns in_a=73 in_b=9d sel_a=0 out=9d
# 61ns in_a=e8 in_b=f8 sel_a=1 out=e8
# 62ns in_a=d5 in_b=94 sel_a=1 out=d5
# 63ns in_a=47 in_b=0f sel_a=0 out=0f
# 64ns in_a=03 in_b=a9 sel_a=0 out=a9
# 65ns in_a=7c in_b=c3 sel_a=1 out=7c
# 66ns in_a=70 in_b=c9 sel_a=0 out=c9
# 67ns in_a=32 in_b=61 sel_a=1 out=32
# 68ns in_a=fe in_b=c5 sel_a=1 out=fe
# 69ns in_a=ce in_b=79 sel_a=1 out=ce
# 70ns in_a=87 in_b=e5 sel_a=0 out=e5
# 71ns in_a=f4 in_b=81 sel_a=1 out=f4
# 72ns in_a=28 in_b=92 sel_a=1 out=28
# 73ns in_a=48 in_b=84 sel_a=1 out=48
# 74ns in_a=8b in_b=96 sel_a=0 out=96
# 75ns in_a=bb in_b=2c sel_a=1 out=bb
# 76ns in_a=58 in_b=ab sel_a=0 out=ab
# 77ns in_a=fb in_b=34 sel_a=1 out=fb
# 78ns in_a=cb in_b=c2 sel_a=1 out=cb
# 79ns in_a=3a in_b=30 sel_a=1 out=3a
# 80ns in_a=9e in_b=dd sel_a=0 out=dd
# 81ns in_a=cb in_b=9c sel_a=0 out=9c
# 82ns in_a=cf in_b=c5 sel_a=1 out=cf
# 83ns in_a=f8 in_b=ff sel_a=0 out=ff
# 84ns in_a=2c in_b=b0 sel_a=0 out=b0
# 85ns in_a=67 in_b=20 sel_a=1 out=67
# 86ns in_a=8d in_b=25 sel_a=0 out=25
# 87ns in_a=7b in_b=46 sel_a=0 out=46
# 88ns in_a=97 in_b=e1 sel_a=0 out=e1
# 89ns in_a=40 in_b=c5 sel_a=0 out=c5
# 90ns in_a=b2 in_b=17 sel_a=0 out=17
# 91ns in_a=b9 in_b=54 sel_a=0 out=54
# 92ns in_a=59 in_b=3f sel_a=0 out=3f
# 93ns in_a=bc in_b=3b sel_a=1 out=bc
# 94ns in_a=01 in_b=1c sel_a=1 out=01
# 95ns in_a=8c in_b=49 sel_a=1 out=8c
# 96ns in_a=fd in_b=ef sel_a=1 out=fd
# 97ns in_a=4d in_b=3c sel_a=1 out=4d
# 98ns in_a=87 in_b=2d sel_a=1 out=87
# 99ns in_a=8e in_b=d0 sel_a=1 out=8e
# 100ns in_a=23 in_b=62 sel_a=0 out=62
# 101ns in_a=5e in_b=63 sel_a=0 out=63
# 102ns in_a=26 in_b=52 sel_a=1 out=26
# 103ns in_a=5c in_b=ac sel_a=0 out=ac
# 104ns in_a=5d in_b=ae sel_a=0 out=ae
# 105ns in_a=5a in_b=f8 sel_a=0 out=f8
# 106ns in_a=9a in_b=e5 sel_a=0 out=e5
# 107ns in_a=0d in_b=b0 sel_a=0 out=b0
# 108ns in_a=e0 in_b=2e sel_a=0 out=2e
# 109ns in_a=e6 in_b=c5 sel_a=0 out=c5
# 110ns in_a=81 in_b=8f sel_a=1 out=81
# 111ns in_a=22 in_b=7e sel_a=1 out=22
# 112ns in_a=3d in_b=9d sel_a=1 out=3d
# 113ns in_a=b5 in_b=06 sel_a=0 out=06
# 114ns in_a=2e in_b=bd sel_a=1 out=2e
# 115ns in_a=cb in_b=36 sel_a=0 out=36
# 116ns in_a=b8 in_b=43 sel_a=1 out=b8
# 117ns in_a=1c in_b=82 sel_a=0 out=82
# 118ns in_a=fe in_b=2b sel_a=0 out=2b
# 119ns in_a=36 in_b=36 sel_a=0 out=36
# 120ns in_a=e3 in_b=e9 sel_a=1 out=e3
# 121ns in_a=6b in_b=22 sel_a=1 out=6b
# 122ns in_a=d9 in_b=98 sel_a=1 out=d9
# 123ns in_a=75 in_b=6b sel_a=1 out=75
# 124ns in_a=a3 in_b=18 sel_a=0 out=18
# 125ns in_a=a1 in_b=3c sel_a=0 out=3c
# 126ns in_a=c9 in_b=c1 sel_a=0 out=c1
# 127ns in_a=0f in_b=bd sel_a=1 out=0f
# 128ns in_a=46 in_b=4b sel_a=1 out=46
# 129ns in_a=76 in_b=62 sel_a=1 out=76
# 130ns in_a=50 in_b=b9 sel_a=1 out=50
# 131ns in_a=ab in_b=18 sel_a=1 out=ab
# 132ns in_a=26 in_b=d5 sel_a=1 out=26
# 133ns in_a=fd in_b=c8 sel_a=1 out=fd
# 134ns in_a=3d in_b=0f sel_a=0 out=0f
# 135ns in_a=d3 in_b=fb sel_a=0 out=fb
# 136ns in_a=09 in_b=1a sel_a=0 out=1a
# 137ns in_a=d2 in_b=36 sel_a=0 out=36
# 138ns in_a=0d in_b=3a sel_a=1 out=0d
# 139ns in_a=9a in_b=a4 sel_a=0 out=a4
# 140ns in_a=3a in_b=64 sel_a=1 out=3a
# 141ns in_a=16 in_b=25 sel_a=1 out=16
# 142ns in_a=3c in_b=cf sel_a=0 out=cf
# 143ns in_a=0e in_b=82 sel_a=0 out=82
# 144ns in_a=98 in_b=1f sel_a=1 out=98
# 145ns in_a=0a in_b=da sel_a=1 out=0a
# 146ns in_a=ec in_b=60 sel_a=1 out=ec
# 147ns in_a=ee in_b=22 sel_a=0 out=22
# 148ns in_a=6a in_b=4e sel_a=0 out=4e
# 149ns in_a=e1 in_b=25 sel_a=1 out=e1
# 150ns in_a=5a in_b=36 sel_a=0 out=36
# 151ns in_a=5e in_b=42 sel_a=1 out=5e
# 152ns in_a=6b in_b=78 sel_a=1 out=6b
# 153ns in_a=95 in_b=54 sel_a=1 out=95
# 154ns in_a=49 in_b=a4 sel_a=1 out=49
# 155ns in_a=6a in_b=de sel_a=1 out=6a
# 156ns in_a=fd in_b=76 sel_a=1 out=fd
# 157ns in_a=90 in_b=8b sel_a=1 out=90
# 158ns in_a=a3 in_b=55 sel_a=0 out=55
# 159ns in_a=bb in_b=54 sel_a=1 out=bb
# 160ns in_a=ec in_b=44 sel_a=0 out=44
# 161ns in_a=34 in_b=4e sel_a=1 out=34
# 162ns in_a=c2 in_b=30 sel_a=0 out=30
# 163ns in_a=ee in_b=6b sel_a=0 out=6b
# 164ns in_a=4d in_b=5c sel_a=0 out=5c
# 165ns in_a=6e in_b=de sel_a=0 out=de
# 166ns in_a=03 in_b=72 sel_a=0 out=72
# 167ns in_a=4e in_b=e9 sel_a=0 out=e9
# 168ns in_a=1b in_b=fd sel_a=0 out=fd
# 169ns in_a=fc in_b=d2 sel_a=0 out=d2
# 170ns in_a=91 in_b=ee sel_a=0 out=ee
# 171ns in_a=69 in_b=88 sel_a=1 out=69
# 172ns in_a=5e in_b=85 sel_a=0 out=85
# 173ns in_a=65 in_b=89 sel_a=0 out=89
# 174ns in_a=9e in_b=2e sel_a=1 out=9e
# 175ns in_a=35 in_b=1e sel_a=0 out=1e
# 176ns in_a=7d in_b=01 sel_a=1 out=7d
# 177ns in_a=6a in_b=69 sel_a=1 out=6a
# 178ns in_a=26 in_b=c5 sel_a=1 out=26
# 179ns in_a=7a in_b=dd sel_a=1 out=7a
# 180ns in_a=b7 in_b=0e sel_a=1 out=b7
# 181ns in_a=6c in_b=19 sel_a=0 out=19
# 182ns in_a=a8 in_b=ef sel_a=0 out=ef
# 183ns in_a=93 in_b=fa sel_a=0 out=fa
# 184ns in_a=8a in_b=96 sel_a=1 out=8a
# 185ns in_a=f3 in_b=23 sel_a=1 out=f3
# 186ns in_a=b8 in_b=35 sel_a=0 out=35
# 187ns in_a=26 in_b=3a sel_a=1 out=26
# 188ns in_a=c5 in_b=5b sel_a=1 out=c5
# 189ns in_a=89 in_b=84 sel_a=1 out=89
# 190ns in_a=96 in_b=12 sel_a=0 out=12
# 191ns in_a=66 in_b=8c sel_a=0 out=8c
# 192ns in_a=d1 in_b=0f sel_a=0 out=0f
# 193ns in_a=f8 in_b=35 sel_a=1 out=f8
# 194ns in_a=fd in_b=a3 sel_a=1 out=fd
# 195ns in_a=5e in_b=0a sel_a=0 out=0a
# 196ns in_a=89 in_b=a3 sel_a=1 out=89
# 197ns in_a=ad in_b=1d sel_a=1 out=ad
# 198ns in_a=72 in_b=bf sel_a=1 out=72
# 199ns in_a=a2 in_b=43 sel_a=0 out=43
# 200ns in_a=23 in_b=a1 sel_a=1 out=23
# 201ns in_a=3a in_b=fe sel_a=1 out=3a
# 202ns in_a=02 in_b=92 sel_a=0 out=92
# 203ns in_a=ac in_b=3e sel_a=0 out=3e
# 204ns in_a=f0 in_b=ed sel_a=1 out=f0
# 205ns in_a=53 in_b=76 sel_a=1 out=53
# 206ns in_a=fd in_b=8a sel_a=1 out=fd
# 207ns in_a=a5 in_b=70 sel_a=1 out=a5
# 208ns in_a=a6 in_b=d2 sel_a=0 out=d2
# 209ns in_a=fb in_b=53 sel_a=1 out=fb
# 210ns in_a=32 in_b=33 sel_a=1 out=32
# 211ns in_a=44 in_b=55 sel_a=1 out=44
# 212ns in_a=53 in_b=86 sel_a=0 out=86
# 213ns in_a=85 in_b=6f sel_a=0 out=6f
# 214ns in_a=28 in_b=ff sel_a=1 out=28
# 215ns in_a=68 in_b=8f sel_a=1 out=68
# 216ns in_a=51 in_b=c8 sel_a=0 out=c8
# 217ns in_a=91 in_b=20 sel_a=0 out=20
# 218ns in_a=85 in_b=8e sel_a=0 out=8e
# 219ns in_a=74 in_b=93 sel_a=1 out=74
# 220ns in_a=51 in_b=ed sel_a=0 out=ed
# 221ns in_a=eb in_b=f1 sel_a=0 out=f1
# 222ns in_a=fc in_b=ab sel_a=0 out=ab
# 223ns in_a=42 in_b=c7 sel_a=0 out=c7
# 224ns in_a=98 in_b=b9 sel_a=1 out=98
# 225ns in_a=5b in_b=83 sel_a=0 out=83
# 226ns in_a=80 in_b=26 sel_a=1 out=80
# 227ns in_a=40 in_b=b6 sel_a=0 out=b6
# 228ns in_a=2a in_b=52 sel_a=1 out=2a
# 229ns in_a=32 in_b=ef sel_a=1 out=32
# 230ns in_a=ae in_b=9d sel_a=1 out=ae
# 231ns in_a=1d in_b=13 sel_a=0 out=13
# 232ns in_a=f7 in_b=16 sel_a=0 out=16
# 233ns in_a=6f in_b=51 sel_a=1 out=6f
# 234ns in_a=0f in_b=08 sel_a=0 out=08
# 235ns in_a=67 in_b=9f sel_a=1 out=67
# 236ns in_a=0a in_b=9a sel_a=1 out=0a
# 237ns in_a=2f in_b=1c sel_a=0 out=1c
# 238ns in_a=8c in_b=fc sel_a=0 out=fc
# 239ns in_a=5a in_b=46 sel_a=0 out=46
# 240ns in_a=9e in_b=d3 sel_a=1 out=9e
# 241ns in_a=8e in_b=e2 sel_a=0 out=e2
# 242ns in_a=e0 in_b=4a sel_a=0 out=4a
# 243ns in_a=1e in_b=7f sel_a=0 out=7f
# 244ns in_a=fd in_b=3c sel_a=0 out=3c
# 245ns in_a=3f in_b=a3 sel_a=0 out=a3
# 246ns in_a=66 in_b=62 sel_a=1 out=66
# 247ns in_a=f8 in_b=d1 sel_a=0 out=d1
# 248ns in_a=cc in_b=9d sel_a=1 out=cc
# 249ns in_a=0f in_b=59 sel_a=1 out=0f
# 250ns in_a=ed in_b=6e sel_a=1 out=ed
# 251ns in_a=7d in_b=c9 sel_a=1 out=7d
# 252ns in_a=f5 in_b=30 sel_a=0 out=30
# 253ns in_a=7f in_b=8f sel_a=1 out=7f
# 254ns in_a=83 in_b=f8 sel_a=0 out=f8
# 255ns in_a=1d in_b=d8 sel_a=0 out=d8
# 256ns in_a=1c in_b=4d sel_a=1 out=1c
# 257ns in_a=1b in_b=2b sel_a=1 out=1b
# 258ns in_a=1b in_b=22 sel_a=1 out=1b
# 259ns in_a=52 in_b=e8 sel_a=1 out=52
# 260ns in_a=0e in_b=40 sel_a=1 out=0e
# 261ns in_a=27 in_b=54 sel_a=0 out=54
# 262ns in_a=f1 in_b=6b sel_a=0 out=6b
# 263ns in_a=59 in_b=b1 sel_a=1 out=59
# 264ns in_a=1b in_b=43 sel_a=1 out=1b
# 265ns in_a=81 in_b=2c sel_a=1 out=81
# 266ns in_a=0f in_b=cc sel_a=0 out=cc
# 267ns in_a=c4 in_b=31 sel_a=0 out=31
# 268ns in_a=f3 in_b=5c sel_a=0 out=5c
# 269ns in_a=01 in_b=24 sel_a=0 out=24
# 270ns in_a=72 in_b=a6 sel_a=1 out=72
# 271ns in_a=f3 in_b=4c sel_a=0 out=4c
# 272ns in_a=6e in_b=86 sel_a=1 out=6e
# 273ns in_a=5e in_b=4d sel_a=0 out=4d
# 274ns in_a=f3 in_b=e3 sel_a=0 out=e3
# 275ns in_a=53 in_b=5d sel_a=0 out=5d
# 276ns in_a=30 in_b=7f sel_a=1 out=30
# 277ns in_a=28 in_b=ef sel_a=0 out=ef
# 278ns in_a=62 in_b=11 sel_a=1 out=62
# 279ns in_a=b5 in_b=e8 sel_a=1 out=b5
# 280ns in_a=2c in_b=b6 sel_a=0 out=b6
# 281ns in_a=d4 in_b=2b sel_a=1 out=d4
# 282ns in_a=5d in_b=8f sel_a=0 out=8f
# 283ns in_a=5e in_b=d2 sel_a=0 out=d2
# 284ns in_a=aa in_b=73 sel_a=0 out=73
# 285ns in_a=be in_b=30 sel_a=1 out=be
# 286ns in_a=02 in_b=c9 sel_a=0 out=c9
# 287ns in_a=ca in_b=90 sel_a=1 out=ca
# 288ns in_a=73 in_b=02 sel_a=0 out=02
# 289ns in_a=4a in_b=27 sel_a=0 out=27
# 290ns in_a=d8 in_b=d5 sel_a=0 out=d5
# 291ns in_a=db in_b=27 sel_a=0 out=27
# 292ns in_a=76 in_b=0f sel_a=0 out=0f
# 293ns in_a=cd in_b=59 sel_a=0 out=59
# 294ns in_a=96 in_b=23 sel_a=1 out=96
# 295ns in_a=39 in_b=e4 sel_a=1 out=39
# 296ns in_a=cf in_b=1a sel_a=1 out=cf
# 297ns in_a=99 in_b=0f sel_a=1 out=99
# 298ns in_a=73 in_b=15 sel_a=0 out=15
# 299ns in_a=31 in_b=c6 sel_a=1 out=31
# 300ns in_a=27 in_b=14 sel_a=1 out=27
# 301ns in_a=f3 in_b=a1 sel_a=1 out=f3
# 302ns in_a=31 in_b=38 sel_a=1 out=31
# 303ns in_a=f0 in_b=0e sel_a=0 out=0e
# 304ns in_a=a2 in_b=00 sel_a=1 out=a2
# 305ns in_a=35 in_b=e1 sel_a=1 out=35
# 306ns in_a=5f in_b=94 sel_a=1 out=5f
# 307ns in_a=95 in_b=10 sel_a=1 out=95
# 308ns in_a=04 in_b=08 sel_a=1 out=04
# 309ns in_a=90 in_b=3a sel_a=1 out=90
# 310ns in_a=8b in_b=43 sel_a=1 out=8b
# 311ns in_a=4b in_b=cb sel_a=0 out=cb
# 312ns in_a=5a in_b=3f sel_a=1 out=5a
# 313ns in_a=89 in_b=e8 sel_a=1 out=89
# 314ns in_a=de in_b=c8 sel_a=0 out=c8
# 315ns in_a=a1 in_b=16 sel_a=1 out=a1
# 316ns in_a=74 in_b=7b sel_a=1 out=74
# 317ns in_a=39 in_b=10 sel_a=0 out=10
# 318ns in_a=8d in_b=d7 sel_a=1 out=8d
# 319ns in_a=1f in_b=a4 sel_a=0 out=a4
# 320ns in_a=15 in_b=87 sel_a=1 out=15
# 321ns in_a=65 in_b=ad sel_a=0 out=ad
# 322ns in_a=01 in_b=35 sel_a=0 out=35
# 323ns in_a=25 in_b=d9 sel_a=0 out=d9
# 324ns in_a=0a in_b=e2 sel_a=1 out=0a
# 325ns in_a=68 in_b=71 sel_a=0 out=71
# 326ns in_a=c6 in_b=11 sel_a=0 out=11
# 327ns in_a=b2 in_b=f8 sel_a=1 out=b2
# 328ns in_a=b4 in_b=63 sel_a=0 out=63
# 329ns in_a=c3 in_b=62 sel_a=0 out=62
# 330ns in_a=67 in_b=f5 sel_a=1 out=67
# 331ns in_a=60 in_b=fe sel_a=1 out=60
# 332ns in_a=3d in_b=03 sel_a=1 out=3d
# 333ns in_a=be in_b=1b sel_a=0 out=1b
# 334ns in_a=3a in_b=22 sel_a=0 out=22
# 335ns in_a=8d in_b=75 sel_a=1 out=8d
# 336ns in_a=77 in_b=41 sel_a=0 out=41
# 337ns in_a=ab in_b=eb sel_a=0 out=eb
# 338ns in_a=97 in_b=c6 sel_a=1 out=97
# 339ns in_a=c2 in_b=67 sel_a=0 out=67
# 340ns in_a=85 in_b=67 sel_a=1 out=85
# 341ns in_a=20 in_b=a9 sel_a=1 out=20
# 342ns in_a=e1 in_b=8d sel_a=1 out=e1
# 343ns in_a=0c in_b=3c sel_a=0 out=3c
# 344ns in_a=60 in_b=63 sel_a=1 out=60
# 345ns in_a=60 in_b=3d sel_a=0 out=3d
# 346ns in_a=e5 in_b=b9 sel_a=0 out=b9
# 347ns in_a=06 in_b=8a sel_a=0 out=8a
# 348ns in_a=ca in_b=4f sel_a=1 out=ca
# 349ns in_a=71 in_b=85 sel_a=0 out=85
# 350ns in_a=35 in_b=ff sel_a=1 out=35
# 351ns in_a=79 in_b=dc sel_a=0 out=dc
# 352ns in_a=2d in_b=e3 sel_a=0 out=e3
# 353ns in_a=22 in_b=41 sel_a=1 out=22
# 354ns in_a=3c in_b=bd sel_a=0 out=bd
# 355ns in_a=ec in_b=15 sel_a=0 out=15
# 356ns in_a=e9 in_b=bd sel_a=0 out=bd
# 357ns in_a=9a in_b=e8 sel_a=1 out=9a
# 358ns in_a=3a in_b=00 sel_a=0 out=00
# 359ns in_a=86 in_b=84 sel_a=1 out=86
# 360ns in_a=78 in_b=00 sel_a=0 out=00
# 361ns in_a=46 in_b=1c sel_a=0 out=1c
# 362ns in_a=63 in_b=43 sel_a=1 out=63
# 363ns in_a=ec in_b=9a sel_a=1 out=ec
# 364ns in_a=d4 in_b=e3 sel_a=0 out=e3
# 365ns in_a=c5 in_b=70 sel_a=1 out=c5
# 366ns in_a=3a in_b=82 sel_a=1 out=3a
# 367ns in_a=2b in_b=82 sel_a=0 out=82
# 368ns in_a=4e in_b=28 sel_a=1 out=4e
# 369ns in_a=12 in_b=ba sel_a=0 out=ba
# 370ns in_a=c7 in_b=5d sel_a=0 out=5d
# 371ns in_a=c5 in_b=f6 sel_a=0 out=f6
# 372ns in_a=f2 in_b=de sel_a=1 out=f2
# 373ns in_a=12 in_b=59 sel_a=0 out=59
# 374ns in_a=b2 in_b=5d sel_a=1 out=b2
# 375ns in_a=a6 in_b=bb sel_a=1 out=a6
# 376ns in_a=86 in_b=f8 sel_a=1 out=86
# 377ns in_a=d0 in_b=f6 sel_a=1 out=d0
# 378ns in_a=7c in_b=15 sel_a=1 out=7c
# 379ns in_a=9a in_b=8c sel_a=1 out=9a
# 380ns in_a=82 in_b=04 sel_a=1 out=82
# 381ns in_a=0b in_b=1b sel_a=1 out=0b
# 382ns in_a=83 in_b=fa sel_a=0 out=fa
# 383ns in_a=05 in_b=67 sel_a=0 out=67
# 384ns in_a=0d in_b=b0 sel_a=0 out=b0
# 385ns in_a=2e in_b=41 sel_a=0 out=41
# 386ns in_a=fb in_b=59 sel_a=1 out=fb
# 387ns in_a=64 in_b=d4 sel_a=0 out=d4
# 388ns in_a=00 in_b=6d sel_a=1 out=00
# 389ns in_a=57 in_b=87 sel_a=1 out=57
# 390ns in_a=85 in_b=41 sel_a=1 out=85
# 391ns in_a=41 in_b=93 sel_a=1 out=41
# 392ns in_a=48 in_b=24 sel_a=0 out=24
# 393ns in_a=db in_b=e7 sel_a=0 out=e7
# 394ns in_a=da in_b=ee sel_a=1 out=da
# 395ns in_a=57 in_b=26 sel_a=0 out=26
# 396ns in_a=3a in_b=e4 sel_a=0 out=e4
# 397ns in_a=74 in_b=de sel_a=0 out=de
# 398ns in_a=cc in_b=89 sel_a=0 out=89
# 399ns in_a=8e in_b=60 sel_a=0 out=60
# 400ns in_a=98 in_b=4d sel_a=1 out=98
# 401ns in_a=f0 in_b=2c sel_a=1 out=f0
# 402ns in_a=09 in_b=98 sel_a=0 out=98
# 403ns in_a=47 in_b=f8 sel_a=1 out=47
# 404ns in_a=26 in_b=9c sel_a=0 out=9c
# 405ns in_a=44 in_b=01 sel_a=0 out=01
# 406ns in_a=31 in_b=b6 sel_a=0 out=b6
# 407ns in_a=ae in_b=a9 sel_a=0 out=a9
# 408ns in_a=ce in_b=a6 sel_a=0 out=a6
# 409ns in_a=63 in_b=f9 sel_a=1 out=63
# 410ns in_a=93 in_b=58 sel_a=0 out=58
# 411ns in_a=59 in_b=5d sel_a=1 out=59
# 412ns in_a=f1 in_b=67 sel_a=1 out=f1
# 413ns in_a=5c in_b=f1 sel_a=1 out=5c
# 414ns in_a=8e in_b=c2 sel_a=0 out=c2
# 415ns in_a=3e in_b=5e sel_a=0 out=5e
# 416ns in_a=28 in_b=58 sel_a=0 out=58
# 417ns in_a=26 in_b=2b sel_a=0 out=2b
# 418ns in_a=80 in_b=41 sel_a=0 out=41
# 419ns in_a=08 in_b=9a sel_a=0 out=9a
# 420ns in_a=0f in_b=88 sel_a=1 out=0f
# 421ns in_a=33 in_b=58 sel_a=1 out=33
# 422ns in_a=40 in_b=8b sel_a=0 out=8b
# 423ns in_a=8a in_b=10 sel_a=1 out=8a
# 424ns in_a=59 in_b=b0 sel_a=0 out=b0
# 425ns in_a=da in_b=c5 sel_a=1 out=da
# 426ns in_a=0b in_b=b1 sel_a=0 out=b1
# 427ns in_a=eb in_b=8e sel_a=1 out=eb
# 428ns in_a=79 in_b=65 sel_a=1 out=79
# 429ns in_a=54 in_b=8e sel_a=1 out=54
# 430ns in_a=89 in_b=0e sel_a=1 out=89
# 431ns in_a=2b in_b=24 sel_a=1 out=2b
# 432ns in_a=9f in_b=de sel_a=1 out=9f
# 433ns in_a=ed in_b=7c sel_a=0 out=7c
# 434ns in_a=af in_b=be sel_a=0 out=be
# 435ns in_a=d9 in_b=7e sel_a=1 out=d9
# 436ns in_a=ee in_b=4d sel_a=0 out=4d
# 437ns in_a=43 in_b=61 sel_a=1 out=43
# 438ns in_a=c7 in_b=a8 sel_a=0 out=a8
# 439ns in_a=01 in_b=0d sel_a=0 out=0d
# 440ns in_a=8a in_b=d2 sel_a=1 out=8a
# 441ns in_a=6f in_b=04 sel_a=0 out=04
# 442ns in_a=9a in_b=ed sel_a=0 out=ed
# 443ns in_a=f1 in_b=27 sel_a=0 out=27
# 444ns in_a=ac in_b=18 sel_a=1 out=ac
# 445ns in_a=a1 in_b=6a sel_a=1 out=a1
# 446ns in_a=2f in_b=93 sel_a=0 out=93
# 447ns in_a=85 in_b=ce sel_a=0 out=ce
# 448ns in_a=d5 in_b=40 sel_a=0 out=40
# 449ns in_a=ef in_b=06 sel_a=1 out=ef
# 450ns in_a=8b in_b=0d sel_a=0 out=0d
# 451ns in_a=f3 in_b=f8 sel_a=0 out=f8
# 452ns in_a=b1 in_b=80 sel_a=1 out=b1
# 453ns in_a=20 in_b=65 sel_a=1 out=20
# 454ns in_a=71 in_b=0c sel_a=1 out=71
# 455ns in_a=50 in_b=76 sel_a=0 out=76
# 456ns in_a=01 in_b=d1 sel_a=0 out=d1
# 457ns in_a=64 in_b=47 sel_a=1 out=64
# 458ns in_a=a8 in_b=0b sel_a=0 out=0b
# 459ns in_a=96 in_b=c4 sel_a=1 out=96
# 460ns in_a=75 in_b=2c sel_a=0 out=2c
# 461ns in_a=6c in_b=9f sel_a=1 out=6c
# 462ns in_a=90 in_b=71 sel_a=1 out=90
# 463ns in_a=84 in_b=55 sel_a=1 out=84
# 464ns in_a=27 in_b=f3 sel_a=1 out=27
# 465ns in_a=fd in_b=66 sel_a=1 out=fd
# 466ns in_a=ef in_b=b4 sel_a=0 out=b4
# 467ns in_a=c2 in_b=d8 sel_a=0 out=d8
# 468ns in_a=0f in_b=f1 sel_a=1 out=0f
# 469ns in_a=39 in_b=98 sel_a=0 out=98
# 470ns in_a=a0 in_b=9d sel_a=1 out=a0
# 471ns in_a=f0 in_b=fb sel_a=0 out=fb
# 472ns in_a=3a in_b=b7 sel_a=0 out=b7
# 473ns in_a=64 in_b=b8 sel_a=1 out=64
# 474ns in_a=08 in_b=8d sel_a=0 out=8d
# 475ns in_a=9d in_b=2c sel_a=0 out=2c
# 476ns in_a=d5 in_b=6a sel_a=0 out=6a
# 477ns in_a=8d in_b=81 sel_a=1 out=8d
# 478ns in_a=62 in_b=6c sel_a=1 out=62
# 479ns in_a=e1 in_b=2b sel_a=1 out=e1
# 480ns in_a=25 in_b=44 sel_a=0 out=44
# 481ns in_a=ef in_b=df sel_a=0 out=df
# 482ns in_a=5f in_b=aa sel_a=1 out=5f
# 483ns in_a=a8 in_b=0b sel_a=1 out=a8
# 484ns in_a=8c in_b=31 sel_a=1 out=8c
# 485ns in_a=39 in_b=d1 sel_a=1 out=39
# 486ns in_a=e6 in_b=a1 sel_a=1 out=e6
# 487ns in_a=40 in_b=13 sel_a=0 out=13
# 488ns in_a=85 in_b=e2 sel_a=0 out=e2
# 489ns in_a=eb in_b=28 sel_a=0 out=28
# 490ns in_a=6f in_b=ef sel_a=0 out=ef
# 491ns in_a=26 in_b=25 sel_a=0 out=25
# 492ns in_a=12 in_b=b9 sel_a=0 out=b9
